Imported job with ATG id:25944 at 2021-02-15 15:20:21
Imported job with ATG id:25945 at 2021-02-15 15:29:25
Imported job with ATG id:25946 at 2021-02-15 15:44:57
Imported job with ATG id:25947 at 2021-02-15 15:44:57
Imported job with ATG id:25948 at 2021-02-15 15:50:49
Imported job with ATG id:25949 at 2021-02-15 15:50:49
Imported job with ATG id:25950 at 2021-02-15 15:50:49
Imported job with ATG id:25951 at 2021-02-15 15:50:49
Imported job with ATG id:25952 at 2021-02-15 15:50:49
Imported job with ATG id:25953 at 2021-02-15 15:50:49
Imported job with ATG id:25954 at 2021-02-15 15:50:49
Imported job with ATG id:25955 at 2021-02-15 15:50:49
Imported job with ATG id:25956 at 2021-02-15 15:50:49
Imported job with ATG id:25957 at 2021-02-15 15:50:49
Imported job with ATG id:25958 at 2021-02-15 15:50:49
Imported job with ATG id:25959 at 2021-02-15 15:50:49
Imported job with ATG id:25960 at 2021-02-15 15:50:49
Imported job with ATG id:25961 at 2021-02-15 15:50:49
Imported job with ATG id:25962 at 2021-02-15 15:50:49
Imported job with ATG id:25963 at 2021-02-15 15:50:49
Imported job with ATG id:25964 at 2021-02-15 15:50:49
Imported job with ATG id:25965 at 2021-02-15 15:50:49
Imported job with ATG id:25966 at 2021-02-15 15:50:49
Imported job with ATG id:25967 at 2021-02-15 15:50:49
Imported job with ATG id:25968 at 2021-02-15 15:50:49
Imported job with ATG id:25969 at 2021-02-15 15:50:49
Imported job with ATG id:25970 at 2021-02-15 15:50:49
Imported job with ATG id:25971 at 2021-02-15 15:50:49
Imported job with ATG id:25972 at 2021-02-15 15:50:49
Imported job with ATG id:25973 at 2021-02-15 15:50:49
Imported job with ATG id:25974 at 2021-02-15 15:50:49
Imported job with ATG id:25975 at 2021-02-15 15:50:49
Imported job with ATG id:25976 at 2021-02-15 15:50:49
Imported job with ATG id:25977 at 2021-02-15 15:50:49
Imported job with ATG id:25978 at 2021-02-15 15:50:49
Imported job with ATG id:25979 at 2021-02-15 15:50:49
Imported job with ATG id:25980 at 2021-02-15 15:50:49
Imported job with ATG id:25981 at 2021-02-15 15:50:49
Imported job with ATG id:25982 at 2021-02-15 15:50:49
Imported job with ATG id:25983 at 2021-02-15 15:50:49
Imported job with ATG id:25984 at 2021-02-15 15:50:49
Imported job with ATG id:25985 at 2021-02-15 15:50:49
Imported job with ATG id:25986 at 2021-02-15 15:50:49
Imported job with ATG id:25987 at 2021-02-15 15:50:49
Imported job with ATG id:25988 at 2021-02-15 15:50:49
Imported job with ATG id:25989 at 2021-02-15 15:50:49
Imported job with ATG id:25990 at 2021-02-15 15:50:49
Imported job with ATG id:25991 at 2021-02-15 15:50:49
Imported job with ATG id:25992 at 2021-02-15 15:50:49
Imported job with ATG id:25993 at 2021-02-15 15:50:49
Imported job with ATG id:25994 at 2021-02-15 15:50:49
Imported job with ATG id:25995 at 2021-02-15 15:50:49
Imported job with ATG id:25996 at 2021-02-15 15:50:49
Imported job with ATG id:25997 at 2021-02-15 15:50:49
Imported job with ATG id:25998 at 2021-02-15 15:50:49
Imported job with ATG id:25999 at 2021-02-15 15:50:49
Imported job with ATG id:26000 at 2021-02-15 15:50:49
Imported job with ATG id:26001 at 2021-02-15 15:50:49
Imported job with ATG id:26002 at 2021-02-15 15:50:49
Imported job with ATG id:26003 at 2021-02-15 15:50:49
Imported job with ATG id:26004 at 2021-02-15 15:50:49
Imported job with ATG id:26005 at 2021-02-15 15:50:49
Imported job with ATG id:26006 at 2021-02-15 15:50:49
Imported job with ATG id:26007 at 2021-02-15 15:50:49
Imported job with ATG id:26008 at 2021-02-15 15:50:49
Imported job with ATG id:26009 at 2021-02-15 15:50:49
Imported job with ATG id:26010 at 2021-02-15 15:50:49
Imported job with ATG id:26011 at 2021-02-15 15:50:49
Imported job with ATG id:26012 at 2021-02-15 15:50:49
Imported job with ATG id:26013 at 2021-02-15 15:50:49
Imported job with ATG id:26014 at 2021-02-15 15:50:49
Imported job with ATG id:26015 at 2021-02-15 15:50:49
Imported job with ATG id:26016 at 2021-02-15 15:50:49
Imported job with ATG id:26017 at 2021-02-15 15:50:49
Imported job with ATG id:26018 at 2021-02-15 15:50:49
Imported job with ATG id:26019 at 2021-02-15 15:50:49
Imported job with ATG id:26020 at 2021-02-15 15:50:49
Imported job with ATG id:26021 at 2021-02-15 15:50:49
Imported job with ATG id:26022 at 2021-02-15 15:50:49
Imported job with ATG id:26023 at 2021-02-15 15:50:49
Imported job with ATG id:26024 at 2021-02-15 15:50:49
Imported job with ATG id:26025 at 2021-02-15 15:50:49
Imported job with ATG id:26026 at 2021-02-15 15:50:49
Imported job with ATG id:26027 at 2021-02-15 15:50:49
Imported job with ATG id:26028 at 2021-02-15 15:50:49
Imported job with ATG id:26029 at 2021-02-15 15:50:49
Imported job with ATG id:26030 at 2021-02-15 15:50:49
Imported job with ATG id:26031 at 2021-02-15 15:50:49
Imported job with ATG id:26032 at 2021-02-15 15:50:49
Imported job with ATG id:26033 at 2021-02-15 15:50:49
Imported job with ATG id:26034 at 2021-02-15 15:50:49
Imported job with ATG id:26035 at 2021-02-15 15:50:49
Imported job with ATG id:26036 at 2021-02-15 15:50:49
Imported job with ATG id:26037 at 2021-02-15 15:50:49
Imported job with ATG id:26038 at 2021-02-15 15:50:49
Imported job with ATG id:26039 at 2021-02-15 15:50:49
Imported job with ATG id:26040 at 2021-02-15 15:50:49
Imported job with ATG id:26041 at 2021-02-15 15:50:49
Imported job with ATG id:26042 at 2021-02-15 15:50:49
Imported job with ATG id:26043 at 2021-02-15 15:50:49
Imported job with ATG id:26044 at 2021-02-15 15:50:49
Imported job with ATG id:26045 at 2021-02-15 15:50:49
